dump.vcd
$version Generated by VerilatedVcd $end
$date Wed Feb 11 23:56:33 2026
 $end
$timescale   1ps $end

 $scope module TOP $end
  $var wire  1 A! clk $end
  $var wire 64 F! dmem_addr [63:0] $end
  $var wire 64 K! dmem_rdata [63:0] $end
  $var wire 64 H! dmem_wdata [63:0] $end
  $var wire  1 J! dmem_wen $end
  $var wire 64 C! imem_addr [63:0] $end
  $var wire 32 E! imem_rdata [31:0] $end
  $var wire  1 B! rst_n $end
  $scope module core_top $end
   $var wire 64 J alu_operand_a [63:0] $end
   $var wire 64 N alu_operand_b [63:0] $end
   $var wire 64 L alu_operand_b_raw [63:0] $end
   $var wire 64 B alu_result [63:0] $end
   $var wire  1 A! clk $end
   $var wire 64 $ current_pc [63:0] $end
   $var wire  4 / dec_alu_op [3:0] $end
   $var wire  1 1 dec_alu_src $end
   $var wire 64 - dec_imm [63:0] $end
   $var wire  5 , dec_rd [4:0] $end
   $var wire  1 0 dec_reg_write $end
   $var wire  5 * dec_rs1 [4:0] $end
   $var wire  5 + dec_rs2 [4:0] $end
   $var wire 64 F! dmem_addr [63:0] $end
   $var wire 64 K! dmem_rdata [63:0] $end
   $var wire 64 H! dmem_wdata [63:0] $end
   $var wire  1 J! dmem_wen $end
   $var wire  4 = ex_alu_op [3:0] $end
   $var wire  1 ? ex_alu_src $end
   $var wire 64 : ex_imm [63:0] $end
   $var wire  5 < ex_rd_addr [4:0] $end
   $var wire  1 > ex_reg_write $end
   $var wire  5 @ ex_rs1_addr [4:0] $end
   $var wire 64 6 ex_rs1_data [63:0] $end
   $var wire  5 A ex_rs2_addr [4:0] $end
   $var wire 64 8 ex_rs2_data [63:0] $end
   $var wire 64 $ fetch_addr [63:0] $end
   $var wire 32 ) id_instr [31:0] $end
   $var wire 64 ' id_pc [63:0] $end
   $var wire 64 C! imem_addr [63:0] $end
   $var wire 32 E! imem_rdata [31:0] $end
   $var wire 64 D mem_alu_result [63:0] $end
   $var wire  5 H mem_rd_addr [4:0] $end
   $var wire  1 I mem_reg_write $end
   $var wire 64 F mem_rs2_data [63:0] $end
   $var wire 32 & raw_instr [31:0] $end
   $var wire 64 2 reg_rs1_data [63:0] $end
   $var wire 64 4 reg_rs2_data [63:0] $end
   $var wire  1 B! rst_n $end
   $var wire 64 K! unused_dmem [63:0] $end
   $var wire 64 ' unused_id_pc [63:0] $end
   $var wire 32 E! unused_imem [31:0] $end
   $var wire 64 $ unused_pc [63:0] $end
   $var wire 64 F unused_rs2_data [63:0] $end
   $var wire 64 P wb_alu_result [63:0] $end
   $var wire 64 T wb_final_data [63:0] $end
   $var wire 64 R wb_mem_data [63:0] $end
   $var wire  1 X wb_mem_to_reg $end
   $var wire  5 V wb_rd_addr [4:0] $end
   $var wire  1 W wb_reg_write $end
   $scope module u_alu $end
    $var wire  4 = alu_op_i [3:0] $end
    $var wire 64 J op_a_i [63:0] $end
    $var wire 64 N op_b_i [63:0] $end
    $var wire 64 B result_o [63:0] $end
   $upscope $end
   $scope module u_decode $end
    $var wire  4 / alu_op_o [3:0] $end
    $var wire  1 1 alu_src_o $end
    $var wire  3 \ funct3 [2:0] $end
    $var wire  7 ] funct7 [6:0] $end
    $var wire 64 - imm_o [63:0] $end
    $var wire 32 ) instr_i [31:0] $end
    $var wire  7 [ opcode [6:0] $end
    $var wire  5 , rd_addr_o [4:0] $end
    $var wire  1 0 reg_write_o $end
    $var wire  5 * rs1_addr_o [4:0] $end
    $var wire  5 + rs2_addr_o [4:0] $end
    $var wire  7 ] unused_funct7 [6:0] $end
   $upscope $end
   $scope module u_ex_mem $end
    $var wire 64 B alu_result_i [63:0] $end
    $var wire 64 D alu_result_o [63:0] $end
    $var wire  1 A! clk $end
    $var wire  5 < rd_addr_i [4:0] $end
    $var wire  5 H rd_addr_o [4:0] $end
    $var wire  1 > reg_write_i $end
    $var wire  1 I reg_write_o $end
    $var wire 64 8 rs2_data_i [63:0] $end
    $var wire 64 F rs2_data_o [63:0] $end
    $var wire  1 B! rst_n $end
   $upscope $end
   $scope module u_fetch $end
    $var wire  1 O! branch_taken_i $end
    $var wire 64 M! branch_target_i [63:0] $end
    $var wire  1 A! clk $end
    $var wire 64 $ imem_addr_o [63:0] $end
    $var wire 64 $ pc_curr [63:0] $end
    $var wire 64 Y pc_next [63:0] $end
    $var wire 64 $ pc_out_o [63:0] $end
    $var wire  1 B! rst_n $end
   $upscope $end
   $scope module u_id_ex $end
    $var wire  4 / alu_op_i [3:0] $end
    $var wire  4 = alu_op_o [3:0] $end
    $var wire  1 1 alu_src_i $end
    $var wire  1 ? alu_src_o $end
    $var wire  1 A! clk $end
    $var wire 64 - imm_i [63:0] $end
    $var wire 64 : imm_o [63:0] $end
    $var wire  5 , rd_addr_i [4:0] $end
    $var wire  5 < rd_addr_o [4:0] $end
    $var wire  1 0 reg_write_i $end
    $var wire  1 > reg_write_o $end
    $var wire  5 * rs1_addr_i [4:0] $end
    $var wire  5 @ rs1_addr_o [4:0] $end
    $var wire 64 2 rs1_data_i [63:0] $end
    $var wire 64 6 rs1_data_o [63:0] $end
    $var wire  5 + rs2_addr_i [4:0] $end
    $var wire  5 A rs2_addr_o [4:0] $end
    $var wire 64 4 rs2_data_i [63:0] $end
    $var wire 64 8 rs2_data_o [63:0] $end
    $var wire  1 B! rst_n $end
   $upscope $end
   $scope module u_if_id $end
    $var wire  1 A! clk $end
    $var wire  1 O! flush_i $end
    $var wire 32 & instr_i [31:0] $end
    $var wire 32 ) instr_o [31:0] $end
    $var wire 64 $ pc_i [63:0] $end
    $var wire 64 ' pc_o [63:0] $end
    $var wire  1 B! rst_n $end
    $var wire  1 O! stall_i $end
   $upscope $end
   $scope module u_mem_wb $end
    $var wire 64 D alu_result_i [63:0] $end
    $var wire 64 P alu_result_o [63:0] $end
    $var wire  1 A! clk $end
    $var wire 64 M! mem_data_i [63:0] $end
    $var wire 64 R mem_data_o [63:0] $end
    $var wire  1 O! mem_to_reg_i $end
    $var wire  1 X mem_to_reg_o $end
    $var wire  5 H rd_addr_i [4:0] $end
    $var wire  5 V rd_addr_o [4:0] $end
    $var wire  1 I reg_write_i $end
    $var wire  1 W reg_write_o $end
    $var wire  1 B! rst_n $end
   $upscope $end
   $scope module u_regfile $end
    $var wire  1 A! clk $end
    $var wire  5 V rd_addr_i [4:0] $end
    $var wire 64 T rd_data_i [63:0] $end
    $var wire  1 W rd_wen_i $end
    $var wire 64 ^ regs(0) [63:0] $end
    $var wire 64 ` regs(1) [63:0] $end
    $var wire 64 r regs(10) [63:0] $end
    $var wire 64 t regs(11) [63:0] $end
    $var wire 64 v regs(12) [63:0] $end
    $var wire 64 x regs(13) [63:0] $end
    $var wire 64 z regs(14) [63:0] $end
    $var wire 64 | regs(15) [63:0] $end
    $var wire 64 ~ regs(16) [63:0] $end
    $var wire 64 "! regs(17) [63:0] $end
    $var wire 64 $! regs(18) [63:0] $end
    $var wire 64 &! regs(19) [63:0] $end
    $var wire 64 b regs(2) [63:0] $end
    $var wire 64 (! regs(20) [63:0] $end
    $var wire 64 *! regs(21) [63:0] $end
    $var wire 64 ,! regs(22) [63:0] $end
    $var wire 64 .! regs(23) [63:0] $end
    $var wire 64 0! regs(24) [63:0] $end
    $var wire 64 2! regs(25) [63:0] $end
    $var wire 64 4! regs(26) [63:0] $end
    $var wire 64 6! regs(27) [63:0] $end
    $var wire 64 8! regs(28) [63:0] $end
    $var wire 64 :! regs(29) [63:0] $end
    $var wire 64 d regs(3) [63:0] $end
    $var wire 64 <! regs(30) [63:0] $end
    $var wire 64 >! regs(31) [63:0] $end
    $var wire 64 f regs(4) [63:0] $end
    $var wire 64 h regs(5) [63:0] $end
    $var wire 64 j regs(6) [63:0] $end
    $var wire 64 l regs(7) [63:0] $end
    $var wire 64 n regs(8) [63:0] $end
    $var wire 64 p regs(9) [63:0] $end
    $var wire  5 * rs1_addr_i [4:0] $end
    $var wire 64 2 rs1_data_o [63:0] $end
    $var wire  5 + rs2_addr_i [4:0] $end
    $var wire 64 4 rs2_data_o [63:0] $end
    $var wire  1 B! rst_n $end
    $scope module unnamedblk1 $end
     $var wire 32 @! i [31:0] $end
    $upscope $end
   $upscope $end
   $scope module u_rom $end
    $var wire 64 $ addr_i [63:0] $end
    $var wire 32 & data_o [31:0] $end
    $var wire 64 $ unused_addr [63:0] $end
    $scope module unnamedblk1 $end
     $var wire 32 # i [31:0] $end
    $upscope $end
   $upscope $end
  $upscope $end
  $scope module riscv_pkg $end
   $var wire 32 Q! ILEN [31:0] $end
   $var wire 32 P! XLEN [31:0] $end
  $upscope $end
 $upscope $end
$enddefinitions $end


#0
b00000000000000000000010000000000 #
b0000000000000000000000000000000000000000000000000000000000000000 $
b00000000010100000000000010010011 &
b0000000000000000000000000000000000000000000000000000000000000000 '
b00000000000000000000000000000000 )
b00000 *
b00000 +
b00000 ,
b0000000000000000000000000000000000000000000000000000000000000000 -
b0000 /
00
01
b0000000000000000000000000000000000000000000000000000000000000000 2
b0000000000000000000000000000000000000000000000000000000000000000 4
b0000000000000000000000000000000000000000000000000000000000000000 6
b0000000000000000000000000000000000000000000000000000000000000000 8
b0000000000000000000000000000000000000000000000000000000000000000 :
b00000 <
b0000 =
0>
0?
b00000 @
b00000 A
b0000000000000000000000000000000000000000000000000000000000000000 B
b0000000000000000000000000000000000000000000000000000000000000000 D
b0000000000000000000000000000000000000000000000000000000000000000 F
b00000 H
0I
b0000000000000000000000000000000000000000000000000000000000000000 J
b0000000000000000000000000000000000000000000000000000000000000000 L
b0000000000000000000000000000000000000000000000000000000000000000 N
b0000000000000000000000000000000000000000000000000000000000000000 P
b0000000000000000000000000000000000000000000000000000000000000000 R
b0000000000000000000000000000000000000000000000000000000000000000 T
b00000 V
0W
0X
b0000000000000000000000000000000000000000000000000000000000000100 Y
b0000000 [
b000 \
b0000000 ]
b0000000000000000000000000000000000000000000000000000000000000000 ^
b0000000000000000000000000000000000000000000000000000000000000000 `
b0000000000000000000000000000000000000000000000000000000000000000 b
b0000000000000000000000000000000000000000000000000000000000000000 d
b0000000000000000000000000000000000000000000000000000000000000000 f
b0000000000000000000000000000000000000000000000000000000000000000 h
b0000000000000000000000000000000000000000000000000000000000000000 j
b0000000000000000000000000000000000000000000000000000000000000000 l
b0000000000000000000000000000000000000000000000000000000000000000 n
b0000000000000000000000000000000000000000000000000000000000000000 p
b0000000000000000000000000000000000000000000000000000000000000000 r
b0000000000000000000000000000000000000000000000000000000000000000 t
b0000000000000000000000000000000000000000000000000000000000000000 v
b0000000000000000000000000000000000000000000000000000000000000000 x
b0000000000000000000000000000000000000000000000000000000000000000 z
b0000000000000000000000000000000000000000000000000000000000000000 |
b0000000000000000000000000000000000000000000000000000000000000000 ~
b0000000000000000000000000000000000000000000000000000000000000000 "!
b0000000000000000000000000000000000000000000000000000000000000000 $!
b0000000000000000000000000000000000000000000000000000000000000000 &!
b0000000000000000000000000000000000000000000000000000000000000000 (!
b0000000000000000000000000000000000000000000000000000000000000000 *!
b0000000000000000000000000000000000000000000000000000000000000000 ,!
b0000000000000000000000000000000000000000000000000000000000000000 .!
b0000000000000000000000000000000000000000000000000000000000000000 0!
b0000000000000000000000000000000000000000000000000000000000000000 2!
b0000000000000000000000000000000000000000000000000000000000000000 4!
b0000000000000000000000000000000000000000000000000000000000000000 6!
b0000000000000000000000000000000000000000000000000000000000000000 8!
b0000000000000000000000000000000000000000000000000000000000000000 :!
b0000000000000000000000000000000000000000000000000000000000000000 <!
b0000000000000000000000000000000000000000000000000000000000000000 >!
b00000000000000000000000000000000 @!
1A!
0B!
b0000000000000000000000000000000000000000000000000000000000000000 C!
b00000000000000000000000000000000 E!
b0000000000000000000000000000000000000000000000000000000000000000 F!
b0000000000000000000000000000000000000000000000000000000000000000 H!
0J!
b0000000000000000000000000000000000000000000000000000000000000000 K!
b0000000000000000000000000000000000000000000000000000000000000000 M!
0O!
b00000000000000000000000001000000 P!
b00000000000000000000000000100000 Q!
#1
0A!
#2
b00000000000000000000000000010011 )
10
11
b0010011 [
b00000000000000000000000000100000 @!
1A!
#3
0A!
#4
1A!
#5
0A!
#6
1A!
#7
0A!
#8
1A!
#9
0A!
#10
1A!
#11
0A!
#12
1A!
#13
0A!
#14
1A!
#15
0A!
#16
1A!
#17
0A!
#18
1A!
#19
0A!
#20
b0000000000000000000000000000000000000000000000000000000000000100 $
b00000000101000000000000100010011 &
b00000000010100000000000010010011 )
b00101 +
b00001 ,
b0000000000000000000000000000000000000000000000000000000000000101 -
1>
1?
b0000000000000000000000000000000000000000000000000000000000001000 Y
1A!
1B!
b0000000000000000000000000000000000000000000000000000000000000100 C!
#21
0A!
#22
b0000000000000000000000000000000000000000000000000000000000001000 $
b00000000001000001000000110110011 &
b0000000000000000000000000000000000000000000000000000000000000100 '
b00000000101000000000000100010011 )
b01010 +
b00010 ,
b0000000000000000000000000000000000000000000000000000000000001010 -
b0000000000000000000000000000000000000000000000000000000000000101 :
b00001 <
b00101 A
b0000000000000000000000000000000000000000000000000000000000000101 B
1I
b0000000000000000000000000000000000000000000000000000000000000101 N
b0000000000000000000000000000000000000000000000000000000000001100 Y
1A!
b0000000000000000000000000000000000000000000000000000000000001000 C!
#23
0A!
#24
b0000000000000000000000000000000000000000000000000000000000001100 $
b00000000000000000000000000010011 &
b0000000000000000000000000000000000000000000000000000000000001000 '
b00000000001000001000000110110011 )
b00001 *
b00010 +
b00011 ,
b0000000000000000000000000000000000000000000000000000000000000000 -
01
b0000000000000000000000000000000000000000000000000000000000001010 :
b00010 <
b01010 A
b0000000000000000000000000000000000000000000000000000000000001010 B
b0000000000000000000000000000000000000000000000000000000000000101 D
b00001 H
b0000000000000000000000000000000000000000000000000000000000001010 N
1W
b0000000000000000000000000000000000000000000000000000000000010000 Y
b0110011 [
1A!
b0000000000000000000000000000000000000000000000000000000000001100 C!
#25
0A!
#26
b0000000000000000000000000000000000000000000000000000000000010000 $
b0000000000000000000000000000000000000000000000000000000000001100 '
b00000000000000000000000000010011 )
b00000 *
b00000 +
b00000 ,
11
b0000000000000000000000000000000000000000000000000000000000000000 :
b00011 <
0?
b00001 @
b00010 A
b0000000000000000000000000000000000000000000000000000000000001111 B
b0000000000000000000000000000000000000000000000000000000000001010 D
b00010 H
b0000000000000000000000000000000000000000000000000000000000000101 J
b0000000000000000000000000000000000000000000000000000000000001010 L
b0000000000000000000000000000000000000000000000000000000000000101 P
b0000000000000000000000000000000000000000000000000000000000000101 T
b00001 V
b0000000000000000000000000000000000000000000000000000000000010100 Y
b0010011 [
1A!
b0000000000000000000000000000000000000000000000000000000000010000 C!
#27
0A!
#28
b0000000000000000000000000000000000000000000000000000000000010100 $
b0000000000000000000000000000000000000000000000000000000000010000 '
b00000 <
1?
b00000 @
b00000 A
b0000000000000000000000000000000000000000000000000000000000000000 B
b0000000000000000000000000000000000000000000000000000000000001111 D
b00011 H
b0000000000000000000000000000000000000000000000000000000000000000 J
b0000000000000000000000000000000000000000000000000000000000000000 L
b0000000000000000000000000000000000000000000000000000000000000000 N
b0000000000000000000000000000000000000000000000000000000000001010 P
b0000000000000000000000000000000000000000000000000000000000001010 T
b00010 V
b0000000000000000000000000000000000000000000000000000000000011000 Y
b0000000000000000000000000000000000000000000000000000000000000101 `
1A!
b0000000000000000000000000000000000000000000000000000000000010100 C!
#29
0A!
#30
b0000000000000000000000000000000000000000000000000000000000011000 $
b0000000000000000000000000000000000000000000000000000000000010100 '
b0000000000000000000000000000000000000000000000000000000000000000 D
b00000 H
b0000000000000000000000000000000000000000000000000000000000001111 P
b0000000000000000000000000000000000000000000000000000000000001111 T
b00011 V
b0000000000000000000000000000000000000000000000000000000000011100 Y
b0000000000000000000000000000000000000000000000000000000000001010 b
1A!
b0000000000000000000000000000000000000000000000000000000000011000 C!
#31
0A!
#32
b0000000000000000000000000000000000000000000000000000000000011100 $
b0000000000000000000000000000000000000000000000000000000000011000 '
b0000000000000000000000000000000000000000000000000000000000000000 P
b0000000000000000000000000000000000000000000000000000000000000000 T
b00000 V
b0000000000000000000000000000000000000000000000000000000000100000 Y
b0000000000000000000000000000000000000000000000000000000000001111 d
1A!
b0000000000000000000000000000000000000000000000000000000000011100 C!
#33
0A!
#34
b0000000000000000000000000000000000000000000000000000000000100000 $
b0000000000000000000000000000000000000000000000000000000000011100 '
b0000000000000000000000000000000000000000000000000000000000100100 Y
1A!
b0000000000000000000000000000000000000000000000000000000000100000 C!
#35
0A!
#36
b0000000000000000000000000000000000000000000000000000000000100100 $
b0000000000000000000000000000000000000000000000000000000000100000 '
b0000000000000000000000000000000000000000000000000000000000101000 Y
1A!
b0000000000000000000000000000000000000000000000000000000000100100 C!
#37
0A!
#38
b0000000000000000000000000000000000000000000000000000000000101000 $
b0000000000000000000000000000000000000000000000000000000000100100 '
b0000000000000000000000000000000000000000000000000000000000101100 Y
1A!
b0000000000000000000000000000000000000000000000000000000000101000 C!
#39
0A!
#40
b0000000000000000000000000000000000000000000000000000000000101100 $
b0000000000000000000000000000000000000000000000000000000000101000 '
b0000000000000000000000000000000000000000000000000000000000110000 Y
1A!
b0000000000000000000000000000000000000000000000000000000000101100 C!
#41
0A!
#42
b0000000000000000000000000000000000000000000000000000000000110000 $
b0000000000000000000000000000000000000000000000000000000000101100 '
b0000000000000000000000000000000000000000000000000000000000110100 Y
1A!
b0000000000000000000000000000000000000000000000000000000000110000 C!
#43
0A!
#44
b0000000000000000000000000000000000000000000000000000000000110100 $
b0000000000000000000000000000000000000000000000000000000000110000 '
b0000000000000000000000000000000000000000000000000000000000111000 Y
1A!
b0000000000000000000000000000000000000000000000000000000000110100 C!
#45
0A!
#46
b0000000000000000000000000000000000000000000000000000000000111000 $
b0000000000000000000000000000000000000000000000000000000000110100 '
b0000000000000000000000000000000000000000000000000000000000111100 Y
1A!
b0000000000000000000000000000000000000000000000000000000000111000 C!
#47
0A!
#48
b0000000000000000000000000000000000000000000000000000000000111100 $
b0000000000000000000000000000000000000000000000000000000000111000 '
b0000000000000000000000000000000000000000000000000000000001000000 Y
1A!
b0000000000000000000000000000000000000000000000000000000000111100 C!
#49
0A!
#50
b0000000000000000000000000000000000000000000000000000000001000000 $
b0000000000000000000000000000000000000000000000000000000000111100 '
b0000000000000000000000000000000000000000000000000000000001000100 Y
1A!
b0000000000000000000000000000000000000000000000000000000001000000 C!
#51
0A!
#52
b0000000000000000000000000000000000000000000000000000000001000100 $
b0000000000000000000000000000000000000000000000000000000001000000 '
b0000000000000000000000000000000000000000000000000000000001001000 Y
1A!
b0000000000000000000000000000000000000000000000000000000001000100 C!
#53
0A!
#54
b0000000000000000000000000000000000000000000000000000000001001000 $
b0000000000000000000000000000000000000000000000000000000001000100 '
b0000000000000000000000000000000000000000000000000000000001001100 Y
1A!
b0000000000000000000000000000000000000000000000000000000001001000 C!
#55
0A!
#56
b0000000000000000000000000000000000000000000000000000000001001100 $
b0000000000000000000000000000000000000000000000000000000001001000 '
b0000000000000000000000000000000000000000000000000000000001010000 Y
1A!
b0000000000000000000000000000000000000000000000000000000001001100 C!
#57
0A!
#58
b0000000000000000000000000000000000000000000000000000000001010000 $
b0000000000000000000000000000000000000000000000000000000001001100 '
b0000000000000000000000000000000000000000000000000000000001010100 Y
1A!
b0000000000000000000000000000000000000000000000000000000001010000 C!
#59
0A!
#60
b0000000000000000000000000000000000000000000000000000000001010100 $
b0000000000000000000000000000000000000000000000000000000001010000 '
b0000000000000000000000000000000000000000000000000000000001011000 Y
1A!
b0000000000000000000000000000000000000000000000000000000001010100 C!
#61
0A!
#62
b0000000000000000000000000000000000000000000000000000000001011000 $
b0000000000000000000000000000000000000000000000000000000001010100 '
b0000000000000000000000000000000000000000000000000000000001011100 Y
1A!
b0000000000000000000000000000000000000000000000000000000001011000 C!
#63
0A!
#64
b0000000000000000000000000000000000000000000000000000000001011100 $
b0000000000000000000000000000000000000000000000000000000001011000 '
b0000000000000000000000000000000000000000000000000000000001100000 Y
1A!
b0000000000000000000000000000000000000000000000000000000001011100 C!
#65
0A!
#66
b0000000000000000000000000000000000000000000000000000000001100000 $
b0000000000000000000000000000000000000000000000000000000001011100 '
b0000000000000000000000000000000000000000000000000000000001100100 Y
1A!
b0000000000000000000000000000000000000000000000000000000001100000 C!
#67
0A!
#68
b0000000000000000000000000000000000000000000000000000000001100100 $
b0000000000000000000000000000000000000000000000000000000001100000 '
b0000000000000000000000000000000000000000000000000000000001101000 Y
1A!
b0000000000000000000000000000000000000000000000000000000001100100 C!
#69
0A!
#70
b0000000000000000000000000000000000000000000000000000000001101000 $
b0000000000000000000000000000000000000000000000000000000001100100 '
b0000000000000000000000000000000000000000000000000000000001101100 Y
1A!
b0000000000000000000000000000000000000000000000000000000001101000 C!
#71
0A!
#72
b0000000000000000000000000000000000000000000000000000000001101100 $
b0000000000000000000000000000000000000000000000000000000001101000 '
b0000000000000000000000000000000000000000000000000000000001110000 Y
1A!
b0000000000000000000000000000000000000000000000000000000001101100 C!
#73
0A!
#74
b0000000000000000000000000000000000000000000000000000000001110000 $
b0000000000000000000000000000000000000000000000000000000001101100 '
b0000000000000000000000000000000000000000000000000000000001110100 Y
1A!
b0000000000000000000000000000000000000000000000000000000001110000 C!
#75
0A!
#76
b0000000000000000000000000000000000000000000000000000000001110100 $
b0000000000000000000000000000000000000000000000000000000001110000 '
b0000000000000000000000000000000000000000000000000000000001111000 Y
1A!
b0000000000000000000000000000000000000000000000000000000001110100 C!
#77
0A!
#78
b0000000000000000000000000000000000000000000000000000000001111000 $
b0000000000000000000000000000000000000000000000000000000001110100 '
b0000000000000000000000000000000000000000000000000000000001111100 Y
1A!
b0000000000000000000000000000000000000000000000000000000001111000 C!
#79
0A!
#80
b0000000000000000000000000000000000000000000000000000000001111100 $
b0000000000000000000000000000000000000000000000000000000001111000 '
b0000000000000000000000000000000000000000000000000000000010000000 Y
1A!
b0000000000000000000000000000000000000000000000000000000001111100 C!
#81
0A!
#82
b0000000000000000000000000000000000000000000000000000000010000000 $
b0000000000000000000000000000000000000000000000000000000001111100 '
b0000000000000000000000000000000000000000000000000000000010000100 Y
1A!
b0000000000000000000000000000000000000000000000000000000010000000 C!
#83
0A!
#84
b0000000000000000000000000000000000000000000000000000000010000100 $
b0000000000000000000000000000000000000000000000000000000010000000 '
b0000000000000000000000000000000000000000000000000000000010001000 Y
1A!
b0000000000000000000000000000000000000000000000000000000010000100 C!
#85
0A!
#86
b0000000000000000000000000000000000000000000000000000000010001000 $
b0000000000000000000000000000000000000000000000000000000010000100 '
b0000000000000000000000000000000000000000000000000000000010001100 Y
1A!
b0000000000000000000000000000000000000000000000000000000010001000 C!
#87
0A!
#88
b0000000000000000000000000000000000000000000000000000000010001100 $
b0000000000000000000000000000000000000000000000000000000010001000 '
b0000000000000000000000000000000000000000000000000000000010010000 Y
1A!
b0000000000000000000000000000000000000000000000000000000010001100 C!
#89
0A!
#90
b0000000000000000000000000000000000000000000000000000000010010000 $
b0000000000000000000000000000000000000000000000000000000010001100 '
b0000000000000000000000000000000000000000000000000000000010010100 Y
1A!
b0000000000000000000000000000000000000000000000000000000010010000 C!
#91
0A!
#92
b0000000000000000000000000000000000000000000000000000000010010100 $
b0000000000000000000000000000000000000000000000000000000010010000 '
b0000000000000000000000000000000000000000000000000000000010011000 Y
1A!
b0000000000000000000000000000000000000000000000000000000010010100 C!
#93
0A!
#94
b0000000000000000000000000000000000000000000000000000000010011000 $
b0000000000000000000000000000000000000000000000000000000010010100 '
b0000000000000000000000000000000000000000000000000000000010011100 Y
1A!
b0000000000000000000000000000000000000000000000000000000010011000 C!
#95
0A!
#96
b0000000000000000000000000000000000000000000000000000000010011100 $
b0000000000000000000000000000000000000000000000000000000010011000 '
b0000000000000000000000000000000000000000000000000000000010100000 Y
1A!
b0000000000000000000000000000000000000000000000000000000010011100 C!
#97
0A!
#98
b0000000000000000000000000000000000000000000000000000000010100000 $
b0000000000000000000000000000000000000000000000000000000010011100 '
b0000000000000000000000000000000000000000000000000000000010100100 Y
1A!
b0000000000000000000000000000000000000000000000000000000010100000 C!
#99
0A!
#100
b0000000000000000000000000000000000000000000000000000000010100100 $
b0000000000000000000000000000000000000000000000000000000010100000 '
b0000000000000000000000000000000000000000000000000000000010101000 Y
1A!
b0000000000000000000000000000000000000000000000000000000010100100 C!
#101
0A!
#102
b0000000000000000000000000000000000000000000000000000000010101000 $
b0000000000000000000000000000000000000000000000000000000010100100 '
b0000000000000000000000000000000000000000000000000000000010101100 Y
1A!
b0000000000000000000000000000000000000000000000000000000010101000 C!
#103
0A!
#104
b0000000000000000000000000000000000000000000000000000000010101100 $
b0000000000000000000000000000000000000000000000000000000010101000 '
b0000000000000000000000000000000000000000000000000000000010110000 Y
1A!
b0000000000000000000000000000000000000000000000000000000010101100 C!
#105
0A!
#106
b0000000000000000000000000000000000000000000000000000000010110000 $
b0000000000000000000000000000000000000000000000000000000010101100 '
b0000000000000000000000000000000000000000000000000000000010110100 Y
1A!
b0000000000000000000000000000000000000000000000000000000010110000 C!
#107
0A!
#108
b0000000000000000000000000000000000000000000000000000000010110100 $
b0000000000000000000000000000000000000000000000000000000010110000 '
b0000000000000000000000000000000000000000000000000000000010111000 Y
1A!
b0000000000000000000000000000000000000000000000000000000010110100 C!
#109
0A!
#110
b0000000000000000000000000000000000000000000000000000000010111000 $
b0000000000000000000000000000000000000000000000000000000010110100 '
b0000000000000000000000000000000000000000000000000000000010111100 Y
1A!
b0000000000000000000000000000000000000000000000000000000010111000 C!
#111
0A!
#112
b0000000000000000000000000000000000000000000000000000000010111100 $
b0000000000000000000000000000000000000000000000000000000010111000 '
b0000000000000000000000000000000000000000000000000000000011000000 Y
1A!
b0000000000000000000000000000000000000000000000000000000010111100 C!
#113
0A!
#114
b0000000000000000000000000000000000000000000000000000000011000000 $
b0000000000000000000000000000000000000000000000000000000010111100 '
b0000000000000000000000000000000000000000000000000000000011000100 Y
1A!
b0000000000000000000000000000000000000000000000000000000011000000 C!
#115
0A!
#116
b0000000000000000000000000000000000000000000000000000000011000100 $
b0000000000000000000000000000000000000000000000000000000011000000 '
b0000000000000000000000000000000000000000000000000000000011001000 Y
1A!
b0000000000000000000000000000000000000000000000000000000011000100 C!
#117
0A!
#118
b0000000000000000000000000000000000000000000000000000000011001000 $
b0000000000000000000000000000000000000000000000000000000011000100 '
b0000000000000000000000000000000000000000000000000000000011001100 Y
1A!
b0000000000000000000000000000000000000000000000000000000011001000 C!
#119
0A!
#120
b0000000000000000000000000000000000000000000000000000000011001100 $
b0000000000000000000000000000000000000000000000000000000011001000 '
b0000000000000000000000000000000000000000000000000000000011010000 Y
1A!
b0000000000000000000000000000000000000000000000000000000011001100 C!
#121
0A!
#122
b0000000000000000000000000000000000000000000000000000000011010000 $
b0000000000000000000000000000000000000000000000000000000011001100 '
b0000000000000000000000000000000000000000000000000000000011010100 Y
1A!
b0000000000000000000000000000000000000000000000000000000011010000 C!
#123
0A!
#124
b0000000000000000000000000000000000000000000000000000000011010100 $
b0000000000000000000000000000000000000000000000000000000011010000 '
b0000000000000000000000000000000000000000000000000000000011011000 Y
1A!
b0000000000000000000000000000000000000000000000000000000011010100 C!
#125
0A!
#126
b0000000000000000000000000000000000000000000000000000000011011000 $
b0000000000000000000000000000000000000000000000000000000011010100 '
b0000000000000000000000000000000000000000000000000000000011011100 Y
1A!
b0000000000000000000000000000000000000000000000000000000011011000 C!
#127
0A!
#128
b0000000000000000000000000000000000000000000000000000000011011100 $
b0000000000000000000000000000000000000000000000000000000011011000 '
b0000000000000000000000000000000000000000000000000000000011100000 Y
1A!
b0000000000000000000000000000000000000000000000000000000011011100 C!
#129
0A!
#130
b0000000000000000000000000000000000000000000000000000000011100000 $
b0000000000000000000000000000000000000000000000000000000011011100 '
b0000000000000000000000000000000000000000000000000000000011100100 Y
1A!
b0000000000000000000000000000000000000000000000000000000011100000 C!
#131
0A!
#132
b0000000000000000000000000000000000000000000000000000000011100100 $
b0000000000000000000000000000000000000000000000000000000011100000 '
b0000000000000000000000000000000000000000000000000000000011101000 Y
1A!
b0000000000000000000000000000000000000000000000000000000011100100 C!
#133
0A!
#134
b0000000000000000000000000000000000000000000000000000000011101000 $
b0000000000000000000000000000000000000000000000000000000011100100 '
b0000000000000000000000000000000000000000000000000000000011101100 Y
1A!
b0000000000000000000000000000000000000000000000000000000011101000 C!
#135
0A!
#136
b0000000000000000000000000000000000000000000000000000000011101100 $
b0000000000000000000000000000000000000000000000000000000011101000 '
b0000000000000000000000000000000000000000000000000000000011110000 Y
1A!
b0000000000000000000000000000000000000000000000000000000011101100 C!
#137
0A!
#138
b0000000000000000000000000000000000000000000000000000000011110000 $
b0000000000000000000000000000000000000000000000000000000011101100 '
b0000000000000000000000000000000000000000000000000000000011110100 Y
1A!
b0000000000000000000000000000000000000000000000000000000011110000 C!
#139
0A!
#140
b0000000000000000000000000000000000000000000000000000000011110100 $
b0000000000000000000000000000000000000000000000000000000011110000 '
b0000000000000000000000000000000000000000000000000000000011111000 Y
1A!
b0000000000000000000000000000000000000000000000000000000011110100 C!
#141
0A!
#142
b0000000000000000000000000000000000000000000000000000000011111000 $
b0000000000000000000000000000000000000000000000000000000011110100 '
b0000000000000000000000000000000000000000000000000000000011111100 Y
1A!
b0000000000000000000000000000000000000000000000000000000011111000 C!
#143
0A!
#144
b0000000000000000000000000000000000000000000000000000000011111100 $
b0000000000000000000000000000000000000000000000000000000011111000 '
b0000000000000000000000000000000000000000000000000000000100000000 Y
1A!
b0000000000000000000000000000000000000000000000000000000011111100 C!
#145
0A!
