dump.vcd
$version Generated by VerilatedVcd $end
$date Wed Feb 11 23:15:23 2026
 $end
$timescale   1ps $end

 $scope module TOP $end
  $var wire  1 ,! clk $end
  $var wire 64 1! dmem_addr [63:0] $end
  $var wire 64 6! dmem_rdata [63:0] $end
  $var wire 64 3! dmem_wdata [63:0] $end
  $var wire  1 5! dmem_wen $end
  $var wire 64 .! imem_addr [63:0] $end
  $var wire 32 0! imem_rdata [31:0] $end
  $var wire  1 -! rst_n $end
  $scope module core_top $end
   $var wire 64 @ alu_operand_b [63:0] $end
   $var wire 64 B alu_result [63:0] $end
   $var wire  1 ,! clk $end
   $var wire 64 $ current_pc [63:0] $end
   $var wire  4 / dec_alu_op [3:0] $end
   $var wire  1 1 dec_alu_src $end
   $var wire 64 - dec_imm [63:0] $end
   $var wire  5 , dec_rd [4:0] $end
   $var wire  1 0 dec_reg_write $end
   $var wire  5 * dec_rs1 [4:0] $end
   $var wire  5 + dec_rs2 [4:0] $end
   $var wire 64 1! dmem_addr [63:0] $end
   $var wire 64 6! dmem_rdata [63:0] $end
   $var wire 64 3! dmem_wdata [63:0] $end
   $var wire  1 5! dmem_wen $end
   $var wire  4 = ex_alu_op [3:0] $end
   $var wire  1 ? ex_alu_src $end
   $var wire 64 : ex_imm [63:0] $end
   $var wire  5 < ex_rd_addr [4:0] $end
   $var wire  1 > ex_reg_write $end
   $var wire 64 6 ex_rs1_data [63:0] $end
   $var wire 64 8 ex_rs2_data [63:0] $end
   $var wire 64 $ fetch_addr [63:0] $end
   $var wire 32 ) id_instr [31:0] $end
   $var wire 64 ' id_pc [63:0] $end
   $var wire 64 .! imem_addr [63:0] $end
   $var wire 32 0! imem_rdata [31:0] $end
   $var wire 32 & raw_instr [31:0] $end
   $var wire 64 2 reg_rs1_data [63:0] $end
   $var wire 64 4 reg_rs2_data [63:0] $end
   $var wire  1 -! rst_n $end
   $var wire 64 6! unused_dmem [63:0] $end
   $var wire 64 ' unused_id_pc [63:0] $end
   $var wire 32 0! unused_imem [31:0] $end
   $var wire 64 $ unused_pc [63:0] $end
   $scope module u_alu $end
    $var wire  4 = alu_op_i [3:0] $end
    $var wire 64 6 op_a_i [63:0] $end
    $var wire 64 @ op_b_i [63:0] $end
    $var wire 64 B result_o [63:0] $end
   $upscope $end
   $scope module u_decode $end
    $var wire  4 / alu_op_o [3:0] $end
    $var wire  1 1 alu_src_o $end
    $var wire  3 G funct3 [2:0] $end
    $var wire  7 H funct7 [6:0] $end
    $var wire 64 - imm_o [63:0] $end
    $var wire 32 ) instr_i [31:0] $end
    $var wire  7 F opcode [6:0] $end
    $var wire  5 , rd_addr_o [4:0] $end
    $var wire  1 0 reg_write_o $end
    $var wire  5 * rs1_addr_o [4:0] $end
    $var wire  5 + rs2_addr_o [4:0] $end
    $var wire  7 H unused_funct7 [6:0] $end
   $upscope $end
   $scope module u_fetch $end
    $var wire  1 :! branch_taken_i $end
    $var wire 64 8! branch_target_i [63:0] $end
    $var wire  1 ,! clk $end
    $var wire 64 $ imem_addr_o [63:0] $end
    $var wire 64 $ pc_curr [63:0] $end
    $var wire 64 D pc_next [63:0] $end
    $var wire 64 $ pc_out_o [63:0] $end
    $var wire  1 -! rst_n $end
   $upscope $end
   $scope module u_id_ex $end
    $var wire  4 / alu_op_i [3:0] $end
    $var wire  4 = alu_op_o [3:0] $end
    $var wire  1 1 alu_src_i $end
    $var wire  1 ? alu_src_o $end
    $var wire  1 ,! clk $end
    $var wire 64 - imm_i [63:0] $end
    $var wire 64 : imm_o [63:0] $end
    $var wire  5 , rd_addr_i [4:0] $end
    $var wire  5 < rd_addr_o [4:0] $end
    $var wire  1 0 reg_write_i $end
    $var wire  1 > reg_write_o $end
    $var wire 64 2 rs1_data_i [63:0] $end
    $var wire 64 6 rs1_data_o [63:0] $end
    $var wire 64 4 rs2_data_i [63:0] $end
    $var wire 64 8 rs2_data_o [63:0] $end
    $var wire  1 -! rst_n $end
   $upscope $end
   $scope module u_if_id $end
    $var wire  1 ,! clk $end
    $var wire  1 :! flush_i $end
    $var wire 32 & instr_i [31:0] $end
    $var wire 32 ) instr_o [31:0] $end
    $var wire 64 $ pc_i [63:0] $end
    $var wire 64 ' pc_o [63:0] $end
    $var wire  1 -! rst_n $end
    $var wire  1 :! stall_i $end
   $upscope $end
   $scope module u_regfile $end
    $var wire  1 ,! clk $end
    $var wire  5 < rd_addr_i [4:0] $end
    $var wire 64 B rd_data_i [63:0] $end
    $var wire  1 > rd_wen_i $end
    $var wire 64 I regs(0) [63:0] $end
    $var wire 64 K regs(1) [63:0] $end
    $var wire 64 ] regs(10) [63:0] $end
    $var wire 64 _ regs(11) [63:0] $end
    $var wire 64 a regs(12) [63:0] $end
    $var wire 64 c regs(13) [63:0] $end
    $var wire 64 e regs(14) [63:0] $end
    $var wire 64 g regs(15) [63:0] $end
    $var wire 64 i regs(16) [63:0] $end
    $var wire 64 k regs(17) [63:0] $end
    $var wire 64 m regs(18) [63:0] $end
    $var wire 64 o regs(19) [63:0] $end
    $var wire 64 M regs(2) [63:0] $end
    $var wire 64 q regs(20) [63:0] $end
    $var wire 64 s regs(21) [63:0] $end
    $var wire 64 u regs(22) [63:0] $end
    $var wire 64 w regs(23) [63:0] $end
    $var wire 64 y regs(24) [63:0] $end
    $var wire 64 { regs(25) [63:0] $end
    $var wire 64 } regs(26) [63:0] $end
    $var wire 64 !! regs(27) [63:0] $end
    $var wire 64 #! regs(28) [63:0] $end
    $var wire 64 %! regs(29) [63:0] $end
    $var wire 64 O regs(3) [63:0] $end
    $var wire 64 '! regs(30) [63:0] $end
    $var wire 64 )! regs(31) [63:0] $end
    $var wire 64 Q regs(4) [63:0] $end
    $var wire 64 S regs(5) [63:0] $end
    $var wire 64 U regs(6) [63:0] $end
    $var wire 64 W regs(7) [63:0] $end
    $var wire 64 Y regs(8) [63:0] $end
    $var wire 64 [ regs(9) [63:0] $end
    $var wire  5 * rs1_addr_i [4:0] $end
    $var wire 64 2 rs1_data_o [63:0] $end
    $var wire  5 + rs2_addr_i [4:0] $end
    $var wire 64 4 rs2_data_o [63:0] $end
    $var wire  1 -! rst_n $end
    $scope module unnamedblk1 $end
     $var wire 32 +! i [31:0] $end
    $upscope $end
   $upscope $end
   $scope module u_rom $end
    $var wire 64 $ addr_i [63:0] $end
    $var wire 32 & data_o [31:0] $end
    $var wire 64 $ unused_addr [63:0] $end
    $scope module unnamedblk1 $end
     $var wire 32 # i [31:0] $end
    $upscope $end
   $upscope $end
  $upscope $end
  $scope module riscv_pkg $end
   $var wire 32 <! ILEN [31:0] $end
   $var wire 32 ;! XLEN [31:0] $end
  $upscope $end
 $upscope $end
$enddefinitions $end


#0
b00000000000000000000010000000000 #
b0000000000000000000000000000000000000000000000000000000000000000 $
b00000000010100000000000010010011 &
b0000000000000000000000000000000000000000000000000000000000000000 '
b00000000000000000000000000000000 )
b00000 *
b00000 +
b00000 ,
b0000000000000000000000000000000000000000000000000000000000000000 -
b0000 /
00
01
b0000000000000000000000000000000000000000000000000000000000000000 2
b0000000000000000000000000000000000000000000000000000000000000000 4
b0000000000000000000000000000000000000000000000000000000000000000 6
b0000000000000000000000000000000000000000000000000000000000000000 8
b0000000000000000000000000000000000000000000000000000000000000000 :
b00000 <
b0000 =
0>
0?
b0000000000000000000000000000000000000000000000000000000000000000 @
b0000000000000000000000000000000000000000000000000000000000000000 B
b0000000000000000000000000000000000000000000000000000000000000100 D
b0000000 F
b000 G
b0000000 H
b0000000000000000000000000000000000000000000000000000000000000000 I
b0000000000000000000000000000000000000000000000000000000000000000 K
b0000000000000000000000000000000000000000000000000000000000000000 M
b0000000000000000000000000000000000000000000000000000000000000000 O
b0000000000000000000000000000000000000000000000000000000000000000 Q
b0000000000000000000000000000000000000000000000000000000000000000 S
b0000000000000000000000000000000000000000000000000000000000000000 U
b0000000000000000000000000000000000000000000000000000000000000000 W
b0000000000000000000000000000000000000000000000000000000000000000 Y
b0000000000000000000000000000000000000000000000000000000000000000 [
b0000000000000000000000000000000000000000000000000000000000000000 ]
b0000000000000000000000000000000000000000000000000000000000000000 _
b0000000000000000000000000000000000000000000000000000000000000000 a
b0000000000000000000000000000000000000000000000000000000000000000 c
b0000000000000000000000000000000000000000000000000000000000000000 e
b0000000000000000000000000000000000000000000000000000000000000000 g
b0000000000000000000000000000000000000000000000000000000000000000 i
b0000000000000000000000000000000000000000000000000000000000000000 k
b0000000000000000000000000000000000000000000000000000000000000000 m
b0000000000000000000000000000000000000000000000000000000000000000 o
b0000000000000000000000000000000000000000000000000000000000000000 q
b0000000000000000000000000000000000000000000000000000000000000000 s
b0000000000000000000000000000000000000000000000000000000000000000 u
b0000000000000000000000000000000000000000000000000000000000000000 w
b0000000000000000000000000000000000000000000000000000000000000000 y
b0000000000000000000000000000000000000000000000000000000000000000 {
b0000000000000000000000000000000000000000000000000000000000000000 }
b0000000000000000000000000000000000000000000000000000000000000000 !!
b0000000000000000000000000000000000000000000000000000000000000000 #!
b0000000000000000000000000000000000000000000000000000000000000000 %!
b0000000000000000000000000000000000000000000000000000000000000000 '!
b0000000000000000000000000000000000000000000000000000000000000000 )!
b00000000000000000000000000000000 +!
1,!
0-!
b0000000000000000000000000000000000000000000000000000000000000000 .!
b00000000000000000000000000000000 0!
b0000000000000000000000000000000000000000000000000000000000000000 1!
b0000000000000000000000000000000000000000000000000000000000000000 3!
05!
b0000000000000000000000000000000000000000000000000000000000000000 6!
b0000000000000000000000000000000000000000000000000000000000000000 8!
0:!
b00000000000000000000000001000000 ;!
b00000000000000000000000000100000 <!
#1
0,!
#2
b00000000000000000000000000010011 )
10
11
b0010011 F
b00000000000000000000000000100000 +!
1,!
#3
0,!
#4
1,!
#5
0,!
#6
1,!
#7
0,!
#8
1,!
#9
0,!
#10
1,!
#11
0,!
#12
1,!
#13
0,!
#14
1,!
#15
0,!
#16
1,!
#17
0,!
#18
1,!
#19
0,!
#20
b0000000000000000000000000000000000000000000000000000000000000100 $
b00000000000000000000000000010011 &
b00000000010100000000000010010011 )
b00101 +
b00001 ,
b0000000000000000000000000000000000000000000000000000000000000101 -
1>
1?
b0000000000000000000000000000000000000000000000000000000000001000 D
1,!
1-!
b0000000000000000000000000000000000000000000000000000000000000100 .!
#21
0,!
#22
b0000000000000000000000000000000000000000000000000000000000001000 $
b0000000000000000000000000000000000000000000000000000000000000100 '
b00000000000000000000000000010011 )
b00000 +
b00000 ,
b0000000000000000000000000000000000000000000000000000000000000000 -
b0000000000000000000000000000000000000000000000000000000000000101 :
b00001 <
b0000000000000000000000000000000000000000000000000000000000000101 @
b0000000000000000000000000000000000000000000000000000000000000101 B
b0000000000000000000000000000000000000000000000000000000000001100 D
1,!
b0000000000000000000000000000000000000000000000000000000000001000 .!
#23
0,!
#24
b0000000000000000000000000000000000000000000000000000000000001100 $
b00000000101000000000000100010011 &
b0000000000000000000000000000000000000000000000000000000000001000 '
b0000000000000000000000000000000000000000000000000000000000000000 :
b00000 <
b0000000000000000000000000000000000000000000000000000000000000000 @
b0000000000000000000000000000000000000000000000000000000000000000 B
b0000000000000000000000000000000000000000000000000000000000010000 D
b0000000000000000000000000000000000000000000000000000000000000101 K
1,!
b0000000000000000000000000000000000000000000000000000000000001100 .!
#25
0,!
#26
b0000000000000000000000000000000000000000000000000000000000010000 $
b00000000000000000000000000010011 &
b0000000000000000000000000000000000000000000000000000000000001100 '
b00000000101000000000000100010011 )
b01010 +
b00010 ,
b0000000000000000000000000000000000000000000000000000000000001010 -
b0000000000000000000000000000000000000000000000000000000000010100 D
1,!
b0000000000000000000000000000000000000000000000000000000000010000 .!
#27
0,!
#28
b0000000000000000000000000000000000000000000000000000000000010100 $
b0000000000000000000000000000000000000000000000000000000000010000 '
b00000000000000000000000000010011 )
b00000 +
b00000 ,
b0000000000000000000000000000000000000000000000000000000000000000 -
b0000000000000000000000000000000000000000000000000000000000001010 :
b00010 <
b0000000000000000000000000000000000000000000000000000000000001010 @
b0000000000000000000000000000000000000000000000000000000000001010 B
b0000000000000000000000000000000000000000000000000000000000011000 D
1,!
b0000000000000000000000000000000000000000000000000000000000010100 .!
#29
0,!
#30
b0000000000000000000000000000000000000000000000000000000000011000 $
b00000000001000001000000110110011 &
b0000000000000000000000000000000000000000000000000000000000010100 '
b0000000000000000000000000000000000000000000000000000000000000000 :
b00000 <
b0000000000000000000000000000000000000000000000000000000000000000 @
b0000000000000000000000000000000000000000000000000000000000000000 B
b0000000000000000000000000000000000000000000000000000000000011100 D
b0000000000000000000000000000000000000000000000000000000000001010 M
1,!
b0000000000000000000000000000000000000000000000000000000000011000 .!
#31
0,!
#32
b0000000000000000000000000000000000000000000000000000000000011100 $
b00000000000000000000000000010011 &
b0000000000000000000000000000000000000000000000000000000000011000 '
b00000000001000001000000110110011 )
b00001 *
b00010 +
b00011 ,
01
b0000000000000000000000000000000000000000000000000000000000000101 2
b0000000000000000000000000000000000000000000000000000000000001010 4
b0000000000000000000000000000000000000000000000000000000000100000 D
b0110011 F
1,!
b0000000000000000000000000000000000000000000000000000000000011100 .!
#33
0,!
#34
b0000000000000000000000000000000000000000000000000000000000100000 $
b0000000000000000000000000000000000000000000000000000000000011100 '
b00000000000000000000000000010011 )
b00000 *
b00000 +
b00000 ,
11
b0000000000000000000000000000000000000000000000000000000000000000 2
b0000000000000000000000000000000000000000000000000000000000000000 4
b0000000000000000000000000000000000000000000000000000000000000101 6
b0000000000000000000000000000000000000000000000000000000000001010 8
b00011 <
0?
b0000000000000000000000000000000000000000000000000000000000001010 @
b0000000000000000000000000000000000000000000000000000000000001111 B
b0000000000000000000000000000000000000000000000000000000000100100 D
b0010011 F
1,!
b0000000000000000000000000000000000000000000000000000000000100000 .!
#35
0,!
#36
b0000000000000000000000000000000000000000000000000000000000100100 $
b0000000000000000000000000000000000000000000000000000000000100000 '
b0000000000000000000000000000000000000000000000000000000000000000 6
b0000000000000000000000000000000000000000000000000000000000000000 8
b00000 <
1?
b0000000000000000000000000000000000000000000000000000000000000000 @
b0000000000000000000000000000000000000000000000000000000000000000 B
b0000000000000000000000000000000000000000000000000000000000101000 D
b0000000000000000000000000000000000000000000000000000000000001111 O
1,!
b0000000000000000000000000000000000000000000000000000000000100100 .!
#37
0,!
#38
b0000000000000000000000000000000000000000000000000000000000101000 $
b0000000000000000000000000000000000000000000000000000000000100100 '
b0000000000000000000000000000000000000000000000000000000000101100 D
1,!
b0000000000000000000000000000000000000000000000000000000000101000 .!
#39
0,!
#40
b0000000000000000000000000000000000000000000000000000000000101100 $
b0000000000000000000000000000000000000000000000000000000000101000 '
b0000000000000000000000000000000000000000000000000000000000110000 D
1,!
b0000000000000000000000000000000000000000000000000000000000101100 .!
#41
0,!
#42
b0000000000000000000000000000000000000000000000000000000000110000 $
b0000000000000000000000000000000000000000000000000000000000101100 '
b0000000000000000000000000000000000000000000000000000000000110100 D
1,!
b0000000000000000000000000000000000000000000000000000000000110000 .!
#43
0,!
#44
b0000000000000000000000000000000000000000000000000000000000110100 $
b0000000000000000000000000000000000000000000000000000000000110000 '
b0000000000000000000000000000000000000000000000000000000000111000 D
1,!
b0000000000000000000000000000000000000000000000000000000000110100 .!
#45
0,!
#46
b0000000000000000000000000000000000000000000000000000000000111000 $
b0000000000000000000000000000000000000000000000000000000000110100 '
b0000000000000000000000000000000000000000000000000000000000111100 D
1,!
b0000000000000000000000000000000000000000000000000000000000111000 .!
#47
0,!
#48
b0000000000000000000000000000000000000000000000000000000000111100 $
b0000000000000000000000000000000000000000000000000000000000111000 '
b0000000000000000000000000000000000000000000000000000000001000000 D
1,!
b0000000000000000000000000000000000000000000000000000000000111100 .!
#49
0,!
#50
b0000000000000000000000000000000000000000000000000000000001000000 $
b0000000000000000000000000000000000000000000000000000000000111100 '
b0000000000000000000000000000000000000000000000000000000001000100 D
1,!
b0000000000000000000000000000000000000000000000000000000001000000 .!
#51
0,!
#52
b0000000000000000000000000000000000000000000000000000000001000100 $
b0000000000000000000000000000000000000000000000000000000001000000 '
b0000000000000000000000000000000000000000000000000000000001001000 D
1,!
b0000000000000000000000000000000000000000000000000000000001000100 .!
#53
0,!
#54
b0000000000000000000000000000000000000000000000000000000001001000 $
b0000000000000000000000000000000000000000000000000000000001000100 '
b0000000000000000000000000000000000000000000000000000000001001100 D
1,!
b0000000000000000000000000000000000000000000000000000000001001000 .!
#55
0,!
#56
b0000000000000000000000000000000000000000000000000000000001001100 $
b0000000000000000000000000000000000000000000000000000000001001000 '
b0000000000000000000000000000000000000000000000000000000001010000 D
1,!
b0000000000000000000000000000000000000000000000000000000001001100 .!
#57
0,!
#58
b0000000000000000000000000000000000000000000000000000000001010000 $
b0000000000000000000000000000000000000000000000000000000001001100 '
b0000000000000000000000000000000000000000000000000000000001010100 D
1,!
b0000000000000000000000000000000000000000000000000000000001010000 .!
#59
0,!
#60
b0000000000000000000000000000000000000000000000000000000001010100 $
b0000000000000000000000000000000000000000000000000000000001010000 '
b0000000000000000000000000000000000000000000000000000000001011000 D
1,!
b0000000000000000000000000000000000000000000000000000000001010100 .!
#61
0,!
#62
b0000000000000000000000000000000000000000000000000000000001011000 $
b0000000000000000000000000000000000000000000000000000000001010100 '
b0000000000000000000000000000000000000000000000000000000001011100 D
1,!
b0000000000000000000000000000000000000000000000000000000001011000 .!
#63
0,!
#64
b0000000000000000000000000000000000000000000000000000000001011100 $
b0000000000000000000000000000000000000000000000000000000001011000 '
b0000000000000000000000000000000000000000000000000000000001100000 D
1,!
b0000000000000000000000000000000000000000000000000000000001011100 .!
#65
0,!
#66
b0000000000000000000000000000000000000000000000000000000001100000 $
b0000000000000000000000000000000000000000000000000000000001011100 '
b0000000000000000000000000000000000000000000000000000000001100100 D
1,!
b0000000000000000000000000000000000000000000000000000000001100000 .!
#67
0,!
#68
b0000000000000000000000000000000000000000000000000000000001100100 $
b0000000000000000000000000000000000000000000000000000000001100000 '
b0000000000000000000000000000000000000000000000000000000001101000 D
1,!
b0000000000000000000000000000000000000000000000000000000001100100 .!
#69
0,!
#70
b0000000000000000000000000000000000000000000000000000000001101000 $
b0000000000000000000000000000000000000000000000000000000001100100 '
b0000000000000000000000000000000000000000000000000000000001101100 D
1,!
b0000000000000000000000000000000000000000000000000000000001101000 .!
#71
0,!
#72
b0000000000000000000000000000000000000000000000000000000001101100 $
b0000000000000000000000000000000000000000000000000000000001101000 '
b0000000000000000000000000000000000000000000000000000000001110000 D
1,!
b0000000000000000000000000000000000000000000000000000000001101100 .!
#73
0,!
#74
b0000000000000000000000000000000000000000000000000000000001110000 $
b0000000000000000000000000000000000000000000000000000000001101100 '
b0000000000000000000000000000000000000000000000000000000001110100 D
1,!
b0000000000000000000000000000000000000000000000000000000001110000 .!
#75
0,!
#76
b0000000000000000000000000000000000000000000000000000000001110100 $
b0000000000000000000000000000000000000000000000000000000001110000 '
b0000000000000000000000000000000000000000000000000000000001111000 D
1,!
b0000000000000000000000000000000000000000000000000000000001110100 .!
#77
0,!
#78
b0000000000000000000000000000000000000000000000000000000001111000 $
b0000000000000000000000000000000000000000000000000000000001110100 '
b0000000000000000000000000000000000000000000000000000000001111100 D
1,!
b0000000000000000000000000000000000000000000000000000000001111000 .!
#79
0,!
#80
b0000000000000000000000000000000000000000000000000000000001111100 $
b0000000000000000000000000000000000000000000000000000000001111000 '
b0000000000000000000000000000000000000000000000000000000010000000 D
1,!
b0000000000000000000000000000000000000000000000000000000001111100 .!
#81
0,!
#82
b0000000000000000000000000000000000000000000000000000000010000000 $
b0000000000000000000000000000000000000000000000000000000001111100 '
b0000000000000000000000000000000000000000000000000000000010000100 D
1,!
b0000000000000000000000000000000000000000000000000000000010000000 .!
#83
0,!
#84
b0000000000000000000000000000000000000000000000000000000010000100 $
b0000000000000000000000000000000000000000000000000000000010000000 '
b0000000000000000000000000000000000000000000000000000000010001000 D
1,!
b0000000000000000000000000000000000000000000000000000000010000100 .!
#85
0,!
#86
b0000000000000000000000000000000000000000000000000000000010001000 $
b0000000000000000000000000000000000000000000000000000000010000100 '
b0000000000000000000000000000000000000000000000000000000010001100 D
1,!
b0000000000000000000000000000000000000000000000000000000010001000 .!
#87
0,!
#88
b0000000000000000000000000000000000000000000000000000000010001100 $
b0000000000000000000000000000000000000000000000000000000010001000 '
b0000000000000000000000000000000000000000000000000000000010010000 D
1,!
b0000000000000000000000000000000000000000000000000000000010001100 .!
#89
0,!
#90
b0000000000000000000000000000000000000000000000000000000010010000 $
b0000000000000000000000000000000000000000000000000000000010001100 '
b0000000000000000000000000000000000000000000000000000000010010100 D
1,!
b0000000000000000000000000000000000000000000000000000000010010000 .!
#91
0,!
#92
b0000000000000000000000000000000000000000000000000000000010010100 $
b0000000000000000000000000000000000000000000000000000000010010000 '
b0000000000000000000000000000000000000000000000000000000010011000 D
1,!
b0000000000000000000000000000000000000000000000000000000010010100 .!
#93
0,!
#94
b0000000000000000000000000000000000000000000000000000000010011000 $
b0000000000000000000000000000000000000000000000000000000010010100 '
b0000000000000000000000000000000000000000000000000000000010011100 D
1,!
b0000000000000000000000000000000000000000000000000000000010011000 .!
#95
0,!
#96
b0000000000000000000000000000000000000000000000000000000010011100 $
b0000000000000000000000000000000000000000000000000000000010011000 '
b0000000000000000000000000000000000000000000000000000000010100000 D
1,!
b0000000000000000000000000000000000000000000000000000000010011100 .!
#97
0,!
#98
b0000000000000000000000000000000000000000000000000000000010100000 $
b0000000000000000000000000000000000000000000000000000000010011100 '
b0000000000000000000000000000000000000000000000000000000010100100 D
1,!
b0000000000000000000000000000000000000000000000000000000010100000 .!
#99
0,!
#100
b0000000000000000000000000000000000000000000000000000000010100100 $
b0000000000000000000000000000000000000000000000000000000010100000 '
b0000000000000000000000000000000000000000000000000000000010101000 D
1,!
b0000000000000000000000000000000000000000000000000000000010100100 .!
#101
0,!
#102
b0000000000000000000000000000000000000000000000000000000010101000 $
b0000000000000000000000000000000000000000000000000000000010100100 '
b0000000000000000000000000000000000000000000000000000000010101100 D
1,!
b0000000000000000000000000000000000000000000000000000000010101000 .!
#103
0,!
#104
b0000000000000000000000000000000000000000000000000000000010101100 $
b0000000000000000000000000000000000000000000000000000000010101000 '
b0000000000000000000000000000000000000000000000000000000010110000 D
1,!
b0000000000000000000000000000000000000000000000000000000010101100 .!
#105
0,!
#106
b0000000000000000000000000000000000000000000000000000000010110000 $
b0000000000000000000000000000000000000000000000000000000010101100 '
b0000000000000000000000000000000000000000000000000000000010110100 D
1,!
b0000000000000000000000000000000000000000000000000000000010110000 .!
#107
0,!
#108
b0000000000000000000000000000000000000000000000000000000010110100 $
b0000000000000000000000000000000000000000000000000000000010110000 '
b0000000000000000000000000000000000000000000000000000000010111000 D
1,!
b0000000000000000000000000000000000000000000000000000000010110100 .!
#109
0,!
#110
b0000000000000000000000000000000000000000000000000000000010111000 $
b0000000000000000000000000000000000000000000000000000000010110100 '
b0000000000000000000000000000000000000000000000000000000010111100 D
1,!
b0000000000000000000000000000000000000000000000000000000010111000 .!
#111
0,!
#112
b0000000000000000000000000000000000000000000000000000000010111100 $
b0000000000000000000000000000000000000000000000000000000010111000 '
b0000000000000000000000000000000000000000000000000000000011000000 D
1,!
b0000000000000000000000000000000000000000000000000000000010111100 .!
#113
0,!
#114
b0000000000000000000000000000000000000000000000000000000011000000 $
b0000000000000000000000000000000000000000000000000000000010111100 '
b0000000000000000000000000000000000000000000000000000000011000100 D
1,!
b0000000000000000000000000000000000000000000000000000000011000000 .!
#115
0,!
#116
b0000000000000000000000000000000000000000000000000000000011000100 $
b0000000000000000000000000000000000000000000000000000000011000000 '
b0000000000000000000000000000000000000000000000000000000011001000 D
1,!
b0000000000000000000000000000000000000000000000000000000011000100 .!
#117
0,!
#118
b0000000000000000000000000000000000000000000000000000000011001000 $
b0000000000000000000000000000000000000000000000000000000011000100 '
b0000000000000000000000000000000000000000000000000000000011001100 D
1,!
b0000000000000000000000000000000000000000000000000000000011001000 .!
#119
0,!
#120
b0000000000000000000000000000000000000000000000000000000011001100 $
b0000000000000000000000000000000000000000000000000000000011001000 '
b0000000000000000000000000000000000000000000000000000000011010000 D
1,!
b0000000000000000000000000000000000000000000000000000000011001100 .!
#121
0,!
#122
b0000000000000000000000000000000000000000000000000000000011010000 $
b0000000000000000000000000000000000000000000000000000000011001100 '
b0000000000000000000000000000000000000000000000000000000011010100 D
1,!
b0000000000000000000000000000000000000000000000000000000011010000 .!
#123
0,!
#124
b0000000000000000000000000000000000000000000000000000000011010100 $
b0000000000000000000000000000000000000000000000000000000011010000 '
b0000000000000000000000000000000000000000000000000000000011011000 D
1,!
b0000000000000000000000000000000000000000000000000000000011010100 .!
#125
0,!
#126
b0000000000000000000000000000000000000000000000000000000011011000 $
b0000000000000000000000000000000000000000000000000000000011010100 '
b0000000000000000000000000000000000000000000000000000000011011100 D
1,!
b0000000000000000000000000000000000000000000000000000000011011000 .!
#127
0,!
#128
b0000000000000000000000000000000000000000000000000000000011011100 $
b0000000000000000000000000000000000000000000000000000000011011000 '
b0000000000000000000000000000000000000000000000000000000011100000 D
1,!
b0000000000000000000000000000000000000000000000000000000011011100 .!
#129
0,!
#130
b0000000000000000000000000000000000000000000000000000000011100000 $
b0000000000000000000000000000000000000000000000000000000011011100 '
b0000000000000000000000000000000000000000000000000000000011100100 D
1,!
b0000000000000000000000000000000000000000000000000000000011100000 .!
#131
0,!
#132
b0000000000000000000000000000000000000000000000000000000011100100 $
b0000000000000000000000000000000000000000000000000000000011100000 '
b0000000000000000000000000000000000000000000000000000000011101000 D
1,!
b0000000000000000000000000000000000000000000000000000000011100100 .!
#133
0,!
#134
b0000000000000000000000000000000000000000000000000000000011101000 $
b0000000000000000000000000000000000000000000000000000000011100100 '
b0000000000000000000000000000000000000000000000000000000011101100 D
1,!
b0000000000000000000000000000000000000000000000000000000011101000 .!
#135
0,!
#136
b0000000000000000000000000000000000000000000000000000000011101100 $
b0000000000000000000000000000000000000000000000000000000011101000 '
b0000000000000000000000000000000000000000000000000000000011110000 D
1,!
b0000000000000000000000000000000000000000000000000000000011101100 .!
#137
0,!
#138
b0000000000000000000000000000000000000000000000000000000011110000 $
b0000000000000000000000000000000000000000000000000000000011101100 '
b0000000000000000000000000000000000000000000000000000000011110100 D
1,!
b0000000000000000000000000000000000000000000000000000000011110000 .!
#139
0,!
#140
b0000000000000000000000000000000000000000000000000000000011110100 $
b0000000000000000000000000000000000000000000000000000000011110000 '
b0000000000000000000000000000000000000000000000000000000011111000 D
1,!
b0000000000000000000000000000000000000000000000000000000011110100 .!
#141
0,!
#142
b0000000000000000000000000000000000000000000000000000000011111000 $
b0000000000000000000000000000000000000000000000000000000011110100 '
b0000000000000000000000000000000000000000000000000000000011111100 D
1,!
b0000000000000000000000000000000000000000000000000000000011111000 .!
#143
0,!
#144
b0000000000000000000000000000000000000000000000000000000011111100 $
b0000000000000000000000000000000000000000000000000000000011111000 '
b0000000000000000000000000000000000000000000000000000000100000000 D
1,!
b0000000000000000000000000000000000000000000000000000000011111100 .!
#145
0,!
#146
b0000000000000000000000000000000000000000000000000000000100000000 $
b0000000000000000000000000000000000000000000000000000000011111100 '
b0000000000000000000000000000000000000000000000000000000100000100 D
1,!
b0000000000000000000000000000000000000000000000000000000100000000 .!
#147
0,!
#148
b0000000000000000000000000000000000000000000000000000000100000100 $
b0000000000000000000000000000000000000000000000000000000100000000 '
b0000000000000000000000000000000000000000000000000000000100001000 D
1,!
b0000000000000000000000000000000000000000000000000000000100000100 .!
#149
0,!
#150
b0000000000000000000000000000000000000000000000000000000100001000 $
b0000000000000000000000000000000000000000000000000000000100000100 '
b0000000000000000000000000000000000000000000000000000000100001100 D
1,!
b0000000000000000000000000000000000000000000000000000000100001000 .!
#151
0,!
#152
b0000000000000000000000000000000000000000000000000000000100001100 $
b0000000000000000000000000000000000000000000000000000000100001000 '
b0000000000000000000000000000000000000000000000000000000100010000 D
1,!
b0000000000000000000000000000000000000000000000000000000100001100 .!
#153
0,!
#154
b0000000000000000000000000000000000000000000000000000000100010000 $
b0000000000000000000000000000000000000000000000000000000100001100 '
b0000000000000000000000000000000000000000000000000000000100010100 D
1,!
b0000000000000000000000000000000000000000000000000000000100010000 .!
#155
0,!
#156
b0000000000000000000000000000000000000000000000000000000100010100 $
b0000000000000000000000000000000000000000000000000000000100010000 '
b0000000000000000000000000000000000000000000000000000000100011000 D
1,!
b0000000000000000000000000000000000000000000000000000000100010100 .!
#157
0,!
#158
b0000000000000000000000000000000000000000000000000000000100011000 $
b0000000000000000000000000000000000000000000000000000000100010100 '
b0000000000000000000000000000000000000000000000000000000100011100 D
1,!
b0000000000000000000000000000000000000000000000000000000100011000 .!
#159
0,!
#160
b0000000000000000000000000000000000000000000000000000000100011100 $
b0000000000000000000000000000000000000000000000000000000100011000 '
b0000000000000000000000000000000000000000000000000000000100100000 D
1,!
b0000000000000000000000000000000000000000000000000000000100011100 .!
#161
0,!
#162
b0000000000000000000000000000000000000000000000000000000100100000 $
b0000000000000000000000000000000000000000000000000000000100011100 '
b0000000000000000000000000000000000000000000000000000000100100100 D
1,!
b0000000000000000000000000000000000000000000000000000000100100000 .!
#163
0,!
#164
b0000000000000000000000000000000000000000000000000000000100100100 $
b0000000000000000000000000000000000000000000000000000000100100000 '
b0000000000000000000000000000000000000000000000000000000100101000 D
1,!
b0000000000000000000000000000000000000000000000000000000100100100 .!
#165
0,!
#166
b0000000000000000000000000000000000000000000000000000000100101000 $
b0000000000000000000000000000000000000000000000000000000100100100 '
b0000000000000000000000000000000000000000000000000000000100101100 D
1,!
b0000000000000000000000000000000000000000000000000000000100101000 .!
#167
0,!
