dump.vcd
$version Generated by VerilatedVcd $end
$date Wed Feb 11 22:11:29 2026
 $end
$timescale   1ps $end

 $scope module TOP $end
  $var wire  1 2 clk $end
  $var wire 64 7 dmem_addr [63:0] $end
  $var wire 64 < dmem_rdata [63:0] $end
  $var wire 64 9 dmem_wdata [63:0] $end
  $var wire  1 ; dmem_wen $end
  $var wire 64 4 imem_addr [63:0] $end
  $var wire 32 6 imem_rdata [31:0] $end
  $var wire  1 3 rst_n $end
  $scope module core_top $end
   $var wire  1 2 clk $end
   $var wire 64 $ current_pc [63:0] $end
   $var wire  7 ' dec_opcode [6:0] $end
   $var wire  5 * dec_rd [4:0] $end
   $var wire  5 ( dec_rs1 [4:0] $end
   $var wire  5 ) dec_rs2 [4:0] $end
   $var wire 64 7 dmem_addr [63:0] $end
   $var wire 64 < dmem_rdata [63:0] $end
   $var wire 64 9 dmem_wdata [63:0] $end
   $var wire  1 ; dmem_wen $end
   $var wire 64 $ fetch_addr [63:0] $end
   $var wire 32 - id_instr [31:0] $end
   $var wire 64 + id_pc [63:0] $end
   $var wire 64 4 imem_addr [63:0] $end
   $var wire 32 6 imem_rdata [31:0] $end
   $var wire 32 & raw_instr [31:0] $end
   $var wire  1 3 rst_n $end
   $var wire 64 < unused_dmem [63:0] $end
   $var wire 64 + unused_id_pc [63:0] $end
   $var wire 32 6 unused_imem [31:0] $end
   $var wire  7 ' unused_opcode [6:0] $end
   $var wire 64 $ unused_pc [63:0] $end
   $var wire  5 * unused_rd [4:0] $end
   $var wire  5 ( unused_rs1 [4:0] $end
   $var wire  5 ) unused_rs2 [4:0] $end
   $scope module u_decode $end
    $var wire  3 0 funct3_o [2:0] $end
    $var wire  7 1 funct7_o [6:0] $end
    $var wire 32 - instr_i [31:0] $end
    $var wire  7 ' opcode_o [6:0] $end
    $var wire  5 * rd_addr_o [4:0] $end
    $var wire  5 ( rs1_addr_o [4:0] $end
    $var wire  5 ) rs2_addr_o [4:0] $end
   $upscope $end
   $scope module u_fetch $end
    $var wire  1 @ branch_taken_i $end
    $var wire 64 > branch_target_i [63:0] $end
    $var wire  1 2 clk $end
    $var wire 64 $ imem_addr_o [63:0] $end
    $var wire 64 $ pc_curr [63:0] $end
    $var wire 64 . pc_next [63:0] $end
    $var wire 64 $ pc_out_o [63:0] $end
    $var wire  1 3 rst_n $end
   $upscope $end
   $scope module u_if_id $end
    $var wire  1 2 clk $end
    $var wire  1 @ flush_i $end
    $var wire 32 & instr_i [31:0] $end
    $var wire 32 - instr_o [31:0] $end
    $var wire 64 $ pc_i [63:0] $end
    $var wire 64 + pc_o [63:0] $end
    $var wire  1 3 rst_n $end
    $var wire  1 @ stall_i $end
   $upscope $end
   $scope module u_rom $end
    $var wire 64 $ addr_i [63:0] $end
    $var wire 32 & data_o [31:0] $end
    $var wire 64 $ unused_addr [63:0] $end
    $scope module unnamedblk1 $end
     $var wire 32 # i [31:0] $end
    $upscope $end
   $upscope $end
  $upscope $end
  $scope module riscv_pkg $end
   $var wire 32 B ILEN [31:0] $end
   $var wire 32 A XLEN [31:0] $end
  $upscope $end
 $upscope $end
$enddefinitions $end


#0
b00000000000000000000010000000000 #
b0000000000000000000000000000000000000000000000000000000000000000 $
b00000000010100000000000010010011 &
b0000000 '
b00000 (
b00000 )
b00000 *
b0000000000000000000000000000000000000000000000000000000000000000 +
b00000000000000000000000000000000 -
b0000000000000000000000000000000000000000000000000000000000000100 .
b000 0
b0000000 1
12
03
b0000000000000000000000000000000000000000000000000000000000000000 4
b00000000000000000000000000000000 6
b0000000000000000000000000000000000000000000000000000000000000000 7
b0000000000000000000000000000000000000000000000000000000000000000 9
0;
b0000000000000000000000000000000000000000000000000000000000000000 <
b0000000000000000000000000000000000000000000000000000000000000000 >
0@
b00000000000000000000000001000000 A
b00000000000000000000000000100000 B
#1
02
#2
b0010011 '
b00000000000000000000000000010011 -
12
#3
02
#4
12
#5
02
#6
12
#7
02
#8
12
#9
02
#10
12
#11
02
#12
12
#13
02
#14
12
#15
02
#16
12
#17
02
#18
12
#19
02
#20
b0000000000000000000000000000000000000000000000000000000000000100 $
b00000000101000000000000100010011 &
b00101 )
b00001 *
b00000000010100000000000010010011 -
b0000000000000000000000000000000000000000000000000000000000001000 .
12
13
b0000000000000000000000000000000000000000000000000000000000000100 4
#21
02
#22
b0000000000000000000000000000000000000000000000000000000000001000 $
b00000000001000001000000110110011 &
b01010 )
b00010 *
b0000000000000000000000000000000000000000000000000000000000000100 +
b00000000101000000000000100010011 -
b0000000000000000000000000000000000000000000000000000000000001100 .
12
b0000000000000000000000000000000000000000000000000000000000001000 4
#23
02
#24
b0000000000000000000000000000000000000000000000000000000000001100 $
b00000000000000000000000000010011 &
b0110011 '
b00001 (
b00010 )
b00011 *
b0000000000000000000000000000000000000000000000000000000000001000 +
b00000000001000001000000110110011 -
b0000000000000000000000000000000000000000000000000000000000010000 .
12
b0000000000000000000000000000000000000000000000000000000000001100 4
#25
02
#26
b0000000000000000000000000000000000000000000000000000000000010000 $
b0010011 '
b00000 (
b00000 )
b00000 *
b0000000000000000000000000000000000000000000000000000000000001100 +
b00000000000000000000000000010011 -
b0000000000000000000000000000000000000000000000000000000000010100 .
12
b0000000000000000000000000000000000000000000000000000000000010000 4
#27
02
#28
b0000000000000000000000000000000000000000000000000000000000010100 $
b0000000000000000000000000000000000000000000000000000000000010000 +
b0000000000000000000000000000000000000000000000000000000000011000 .
12
b0000000000000000000000000000000000000000000000000000000000010100 4
#29
02
#30
b0000000000000000000000000000000000000000000000000000000000011000 $
b0000000000000000000000000000000000000000000000000000000000010100 +
b0000000000000000000000000000000000000000000000000000000000011100 .
12
b0000000000000000000000000000000000000000000000000000000000011000 4
#31
02
#32
b0000000000000000000000000000000000000000000000000000000000011100 $
b0000000000000000000000000000000000000000000000000000000000011000 +
b0000000000000000000000000000000000000000000000000000000000100000 .
12
b0000000000000000000000000000000000000000000000000000000000011100 4
#33
02
#34
b0000000000000000000000000000000000000000000000000000000000100000 $
b0000000000000000000000000000000000000000000000000000000000011100 +
b0000000000000000000000000000000000000000000000000000000000100100 .
12
b0000000000000000000000000000000000000000000000000000000000100000 4
#35
02
#36
b0000000000000000000000000000000000000000000000000000000000100100 $
b0000000000000000000000000000000000000000000000000000000000100000 +
b0000000000000000000000000000000000000000000000000000000000101000 .
12
b0000000000000000000000000000000000000000000000000000000000100100 4
#37
02
#38
b0000000000000000000000000000000000000000000000000000000000101000 $
b0000000000000000000000000000000000000000000000000000000000100100 +
b0000000000000000000000000000000000000000000000000000000000101100 .
12
b0000000000000000000000000000000000000000000000000000000000101000 4
#39
02
#40
b0000000000000000000000000000000000000000000000000000000000101100 $
b0000000000000000000000000000000000000000000000000000000000101000 +
b0000000000000000000000000000000000000000000000000000000000110000 .
12
b0000000000000000000000000000000000000000000000000000000000101100 4
#41
02
#42
b0000000000000000000000000000000000000000000000000000000000110000 $
b0000000000000000000000000000000000000000000000000000000000101100 +
b0000000000000000000000000000000000000000000000000000000000110100 .
12
b0000000000000000000000000000000000000000000000000000000000110000 4
#43
02
#44
b0000000000000000000000000000000000000000000000000000000000110100 $
b0000000000000000000000000000000000000000000000000000000000110000 +
b0000000000000000000000000000000000000000000000000000000000111000 .
12
b0000000000000000000000000000000000000000000000000000000000110100 4
#45
02
#46
b0000000000000000000000000000000000000000000000000000000000111000 $
b0000000000000000000000000000000000000000000000000000000000110100 +
b0000000000000000000000000000000000000000000000000000000000111100 .
12
b0000000000000000000000000000000000000000000000000000000000111000 4
#47
02
#48
b0000000000000000000000000000000000000000000000000000000000111100 $
b0000000000000000000000000000000000000000000000000000000000111000 +
b0000000000000000000000000000000000000000000000000000000001000000 .
12
b0000000000000000000000000000000000000000000000000000000000111100 4
#49
02
#50
b0000000000000000000000000000000000000000000000000000000001000000 $
b0000000000000000000000000000000000000000000000000000000000111100 +
b0000000000000000000000000000000000000000000000000000000001000100 .
12
b0000000000000000000000000000000000000000000000000000000001000000 4
#51
02
#52
b0000000000000000000000000000000000000000000000000000000001000100 $
b0000000000000000000000000000000000000000000000000000000001000000 +
b0000000000000000000000000000000000000000000000000000000001001000 .
12
b0000000000000000000000000000000000000000000000000000000001000100 4
#53
02
#54
b0000000000000000000000000000000000000000000000000000000001001000 $
b0000000000000000000000000000000000000000000000000000000001000100 +
b0000000000000000000000000000000000000000000000000000000001001100 .
12
b0000000000000000000000000000000000000000000000000000000001001000 4
#55
02
#56
b0000000000000000000000000000000000000000000000000000000001001100 $
b0000000000000000000000000000000000000000000000000000000001001000 +
b0000000000000000000000000000000000000000000000000000000001010000 .
12
b0000000000000000000000000000000000000000000000000000000001001100 4
#57
02
#58
b0000000000000000000000000000000000000000000000000000000001010000 $
b0000000000000000000000000000000000000000000000000000000001001100 +
b0000000000000000000000000000000000000000000000000000000001010100 .
12
b0000000000000000000000000000000000000000000000000000000001010000 4
#59
02
#60
b0000000000000000000000000000000000000000000000000000000001010100 $
b0000000000000000000000000000000000000000000000000000000001010000 +
b0000000000000000000000000000000000000000000000000000000001011000 .
12
b0000000000000000000000000000000000000000000000000000000001010100 4
#61
02
#62
b0000000000000000000000000000000000000000000000000000000001011000 $
b0000000000000000000000000000000000000000000000000000000001010100 +
b0000000000000000000000000000000000000000000000000000000001011100 .
12
b0000000000000000000000000000000000000000000000000000000001011000 4
#63
02
#64
b0000000000000000000000000000000000000000000000000000000001011100 $
b0000000000000000000000000000000000000000000000000000000001011000 +
b0000000000000000000000000000000000000000000000000000000001100000 .
12
b0000000000000000000000000000000000000000000000000000000001011100 4
#65
02
#66
b0000000000000000000000000000000000000000000000000000000001100000 $
b0000000000000000000000000000000000000000000000000000000001011100 +
b0000000000000000000000000000000000000000000000000000000001100100 .
12
b0000000000000000000000000000000000000000000000000000000001100000 4
#67
02
#68
b0000000000000000000000000000000000000000000000000000000001100100 $
b0000000000000000000000000000000000000000000000000000000001100000 +
b0000000000000000000000000000000000000000000000000000000001101000 .
12
b0000000000000000000000000000000000000000000000000000000001100100 4
#69
02
#70
b0000000000000000000000000000000000000000000000000000000001101000 $
b0000000000000000000000000000000000000000000000000000000001100100 +
b0000000000000000000000000000000000000000000000000000000001101100 .
12
b0000000000000000000000000000000000000000000000000000000001101000 4
#71
02
#72
b0000000000000000000000000000000000000000000000000000000001101100 $
b0000000000000000000000000000000000000000000000000000000001101000 +
b0000000000000000000000000000000000000000000000000000000001110000 .
12
b0000000000000000000000000000000000000000000000000000000001101100 4
#73
02
#74
b0000000000000000000000000000000000000000000000000000000001110000 $
b0000000000000000000000000000000000000000000000000000000001101100 +
b0000000000000000000000000000000000000000000000000000000001110100 .
12
b0000000000000000000000000000000000000000000000000000000001110000 4
#75
02
#76
b0000000000000000000000000000000000000000000000000000000001110100 $
b0000000000000000000000000000000000000000000000000000000001110000 +
b0000000000000000000000000000000000000000000000000000000001111000 .
12
b0000000000000000000000000000000000000000000000000000000001110100 4
#77
02
#78
b0000000000000000000000000000000000000000000000000000000001111000 $
b0000000000000000000000000000000000000000000000000000000001110100 +
b0000000000000000000000000000000000000000000000000000000001111100 .
12
b0000000000000000000000000000000000000000000000000000000001111000 4
#79
02
#80
b0000000000000000000000000000000000000000000000000000000001111100 $
b0000000000000000000000000000000000000000000000000000000001111000 +
b0000000000000000000000000000000000000000000000000000000010000000 .
12
b0000000000000000000000000000000000000000000000000000000001111100 4
#81
02
#82
b0000000000000000000000000000000000000000000000000000000010000000 $
b0000000000000000000000000000000000000000000000000000000001111100 +
b0000000000000000000000000000000000000000000000000000000010000100 .
12
b0000000000000000000000000000000000000000000000000000000010000000 4
#83
02
#84
b0000000000000000000000000000000000000000000000000000000010000100 $
b0000000000000000000000000000000000000000000000000000000010000000 +
b0000000000000000000000000000000000000000000000000000000010001000 .
12
b0000000000000000000000000000000000000000000000000000000010000100 4
#85
02
#86
b0000000000000000000000000000000000000000000000000000000010001000 $
b0000000000000000000000000000000000000000000000000000000010000100 +
b0000000000000000000000000000000000000000000000000000000010001100 .
12
b0000000000000000000000000000000000000000000000000000000010001000 4
#87
02
#88
b0000000000000000000000000000000000000000000000000000000010001100 $
b0000000000000000000000000000000000000000000000000000000010001000 +
b0000000000000000000000000000000000000000000000000000000010010000 .
12
b0000000000000000000000000000000000000000000000000000000010001100 4
#89
02
#90
b0000000000000000000000000000000000000000000000000000000010010000 $
b0000000000000000000000000000000000000000000000000000000010001100 +
b0000000000000000000000000000000000000000000000000000000010010100 .
12
b0000000000000000000000000000000000000000000000000000000010010000 4
#91
02
#92
b0000000000000000000000000000000000000000000000000000000010010100 $
b0000000000000000000000000000000000000000000000000000000010010000 +
b0000000000000000000000000000000000000000000000000000000010011000 .
12
b0000000000000000000000000000000000000000000000000000000010010100 4
#93
02
#94
b0000000000000000000000000000000000000000000000000000000010011000 $
b0000000000000000000000000000000000000000000000000000000010010100 +
b0000000000000000000000000000000000000000000000000000000010011100 .
12
b0000000000000000000000000000000000000000000000000000000010011000 4
#95
02
#96
b0000000000000000000000000000000000000000000000000000000010011100 $
b0000000000000000000000000000000000000000000000000000000010011000 +
b0000000000000000000000000000000000000000000000000000000010100000 .
12
b0000000000000000000000000000000000000000000000000000000010011100 4
#97
02
#98
b0000000000000000000000000000000000000000000000000000000010100000 $
b0000000000000000000000000000000000000000000000000000000010011100 +
b0000000000000000000000000000000000000000000000000000000010100100 .
12
b0000000000000000000000000000000000000000000000000000000010100000 4
#99
02
#100
b0000000000000000000000000000000000000000000000000000000010100100 $
b0000000000000000000000000000000000000000000000000000000010100000 +
b0000000000000000000000000000000000000000000000000000000010101000 .
12
b0000000000000000000000000000000000000000000000000000000010100100 4
#101
02
#102
b0000000000000000000000000000000000000000000000000000000010101000 $
b0000000000000000000000000000000000000000000000000000000010100100 +
b0000000000000000000000000000000000000000000000000000000010101100 .
12
b0000000000000000000000000000000000000000000000000000000010101000 4
#103
02
#104
b0000000000000000000000000000000000000000000000000000000010101100 $
b0000000000000000000000000000000000000000000000000000000010101000 +
b0000000000000000000000000000000000000000000000000000000010110000 .
12
b0000000000000000000000000000000000000000000000000000000010101100 4
#105
02
#106
b0000000000000000000000000000000000000000000000000000000010110000 $
b0000000000000000000000000000000000000000000000000000000010101100 +
b0000000000000000000000000000000000000000000000000000000010110100 .
12
b0000000000000000000000000000000000000000000000000000000010110000 4
#107
02
#108
b0000000000000000000000000000000000000000000000000000000010110100 $
b0000000000000000000000000000000000000000000000000000000010110000 +
b0000000000000000000000000000000000000000000000000000000010111000 .
12
b0000000000000000000000000000000000000000000000000000000010110100 4
#109
02
#110
b0000000000000000000000000000000000000000000000000000000010111000 $
b0000000000000000000000000000000000000000000000000000000010110100 +
b0000000000000000000000000000000000000000000000000000000010111100 .
12
b0000000000000000000000000000000000000000000000000000000010111000 4
#111
02
#112
b0000000000000000000000000000000000000000000000000000000010111100 $
b0000000000000000000000000000000000000000000000000000000010111000 +
b0000000000000000000000000000000000000000000000000000000011000000 .
12
b0000000000000000000000000000000000000000000000000000000010111100 4
#113
02
#114
b0000000000000000000000000000000000000000000000000000000011000000 $
b0000000000000000000000000000000000000000000000000000000010111100 +
b0000000000000000000000000000000000000000000000000000000011000100 .
12
b0000000000000000000000000000000000000000000000000000000011000000 4
#115
02
#116
b0000000000000000000000000000000000000000000000000000000011000100 $
b0000000000000000000000000000000000000000000000000000000011000000 +
b0000000000000000000000000000000000000000000000000000000011001000 .
12
b0000000000000000000000000000000000000000000000000000000011000100 4
#117
02
#118
b0000000000000000000000000000000000000000000000000000000011001000 $
b0000000000000000000000000000000000000000000000000000000011000100 +
b0000000000000000000000000000000000000000000000000000000011001100 .
12
b0000000000000000000000000000000000000000000000000000000011001000 4
#119
02
#120
b0000000000000000000000000000000000000000000000000000000011001100 $
b0000000000000000000000000000000000000000000000000000000011001000 +
b0000000000000000000000000000000000000000000000000000000011010000 .
12
b0000000000000000000000000000000000000000000000000000000011001100 4
#121
02
#122
b0000000000000000000000000000000000000000000000000000000011010000 $
b0000000000000000000000000000000000000000000000000000000011001100 +
b0000000000000000000000000000000000000000000000000000000011010100 .
12
b0000000000000000000000000000000000000000000000000000000011010000 4
#123
02
#124
b0000000000000000000000000000000000000000000000000000000011010100 $
b0000000000000000000000000000000000000000000000000000000011010000 +
b0000000000000000000000000000000000000000000000000000000011011000 .
12
b0000000000000000000000000000000000000000000000000000000011010100 4
#125
02
#126
b0000000000000000000000000000000000000000000000000000000011011000 $
b0000000000000000000000000000000000000000000000000000000011010100 +
b0000000000000000000000000000000000000000000000000000000011011100 .
12
b0000000000000000000000000000000000000000000000000000000011011000 4
#127
02
#128
b0000000000000000000000000000000000000000000000000000000011011100 $
b0000000000000000000000000000000000000000000000000000000011011000 +
b0000000000000000000000000000000000000000000000000000000011100000 .
12
b0000000000000000000000000000000000000000000000000000000011011100 4
#129
02
#130
b0000000000000000000000000000000000000000000000000000000011100000 $
b0000000000000000000000000000000000000000000000000000000011011100 +
b0000000000000000000000000000000000000000000000000000000011100100 .
12
b0000000000000000000000000000000000000000000000000000000011100000 4
#131
02
#132
b0000000000000000000000000000000000000000000000000000000011100100 $
b0000000000000000000000000000000000000000000000000000000011100000 +
b0000000000000000000000000000000000000000000000000000000011101000 .
12
b0000000000000000000000000000000000000000000000000000000011100100 4
#133
02
#134
b0000000000000000000000000000000000000000000000000000000011101000 $
b0000000000000000000000000000000000000000000000000000000011100100 +
b0000000000000000000000000000000000000000000000000000000011101100 .
12
b0000000000000000000000000000000000000000000000000000000011101000 4
#135
02
#136
b0000000000000000000000000000000000000000000000000000000011101100 $
b0000000000000000000000000000000000000000000000000000000011101000 +
b0000000000000000000000000000000000000000000000000000000011110000 .
12
b0000000000000000000000000000000000000000000000000000000011101100 4
#137
02
#138
b0000000000000000000000000000000000000000000000000000000011110000 $
b0000000000000000000000000000000000000000000000000000000011101100 +
b0000000000000000000000000000000000000000000000000000000011110100 .
12
b0000000000000000000000000000000000000000000000000000000011110000 4
#139
02
#140
b0000000000000000000000000000000000000000000000000000000011110100 $
b0000000000000000000000000000000000000000000000000000000011110000 +
b0000000000000000000000000000000000000000000000000000000011111000 .
12
b0000000000000000000000000000000000000000000000000000000011110100 4
#141
02
#142
b0000000000000000000000000000000000000000000000000000000011111000 $
b0000000000000000000000000000000000000000000000000000000011110100 +
b0000000000000000000000000000000000000000000000000000000011111100 .
12
b0000000000000000000000000000000000000000000000000000000011111000 4
#143
02
#144
b0000000000000000000000000000000000000000000000000000000011111100 $
b0000000000000000000000000000000000000000000000000000000011111000 +
b0000000000000000000000000000000000000000000000000000000100000000 .
12
b0000000000000000000000000000000000000000000000000000000011111100 4
#145
02
#146
b0000000000000000000000000000000000000000000000000000000100000000 $
b0000000000000000000000000000000000000000000000000000000011111100 +
b0000000000000000000000000000000000000000000000000000000100000100 .
12
b0000000000000000000000000000000000000000000000000000000100000000 4
#147
02
#148
b0000000000000000000000000000000000000000000000000000000100000100 $
b0000000000000000000000000000000000000000000000000000000100000000 +
b0000000000000000000000000000000000000000000000000000000100001000 .
12
b0000000000000000000000000000000000000000000000000000000100000100 4
#149
02
#150
b0000000000000000000000000000000000000000000000000000000100001000 $
b0000000000000000000000000000000000000000000000000000000100000100 +
b0000000000000000000000000000000000000000000000000000000100001100 .
12
b0000000000000000000000000000000000000000000000000000000100001000 4
#151
02
#152
b0000000000000000000000000000000000000000000000000000000100001100 $
b0000000000000000000000000000000000000000000000000000000100001000 +
b0000000000000000000000000000000000000000000000000000000100010000 .
12
b0000000000000000000000000000000000000000000000000000000100001100 4
#153
02
#154
b0000000000000000000000000000000000000000000000000000000100010000 $
b0000000000000000000000000000000000000000000000000000000100001100 +
b0000000000000000000000000000000000000000000000000000000100010100 .
12
b0000000000000000000000000000000000000000000000000000000100010000 4
#155
02
#156
b0000000000000000000000000000000000000000000000000000000100010100 $
b0000000000000000000000000000000000000000000000000000000100010000 +
b0000000000000000000000000000000000000000000000000000000100011000 .
12
b0000000000000000000000000000000000000000000000000000000100010100 4
#157
02
#158
b0000000000000000000000000000000000000000000000000000000100011000 $
b0000000000000000000000000000000000000000000000000000000100010100 +
b0000000000000000000000000000000000000000000000000000000100011100 .
12
b0000000000000000000000000000000000000000000000000000000100011000 4
#159
02
#160
b0000000000000000000000000000000000000000000000000000000100011100 $
b0000000000000000000000000000000000000000000000000000000100011000 +
b0000000000000000000000000000000000000000000000000000000100100000 .
12
b0000000000000000000000000000000000000000000000000000000100011100 4
#161
02
#162
b0000000000000000000000000000000000000000000000000000000100100000 $
b0000000000000000000000000000000000000000000000000000000100011100 +
b0000000000000000000000000000000000000000000000000000000100100100 .
12
b0000000000000000000000000000000000000000000000000000000100100000 4
#163
02
#164
b0000000000000000000000000000000000000000000000000000000100100100 $
b0000000000000000000000000000000000000000000000000000000100100000 +
b0000000000000000000000000000000000000000000000000000000100101000 .
12
b0000000000000000000000000000000000000000000000000000000100100100 4
#165
02
#166
b0000000000000000000000000000000000000000000000000000000100101000 $
b0000000000000000000000000000000000000000000000000000000100100100 +
b0000000000000000000000000000000000000000000000000000000100101100 .
12
b0000000000000000000000000000000000000000000000000000000100101000 4
#167
02
#168
b0000000000000000000000000000000000000000000000000000000100101100 $
b0000000000000000000000000000000000000000000000000000000100101000 +
b0000000000000000000000000000000000000000000000000000000100110000 .
12
b0000000000000000000000000000000000000000000000000000000100101100 4
#169
02
#170
b0000000000000000000000000000000000000000000000000000000100110000 $
b0000000000000000000000000000000000000000000000000000000100101100 +
b0000000000000000000000000000000000000000000000000000000100110100 .
12
b0000000000000000000000000000000000000000000000000000000100110000 4
#171
02
#172
b0000000000000000000000000000000000000000000000000000000100110100 $
b0000000000000000000000000000000000000000000000000000000100110000 +
b0000000000000000000000000000000000000000000000000000000100111000 .
12
b0000000000000000000000000000000000000000000000000000000100110100 4
#173
02
#174
b0000000000000000000000000000000000000000000000000000000100111000 $
b0000000000000000000000000000000000000000000000000000000100110100 +
b0000000000000000000000000000000000000000000000000000000100111100 .
12
b0000000000000000000000000000000000000000000000000000000100111000 4
#175
02
#176
b0000000000000000000000000000000000000000000000000000000100111100 $
b0000000000000000000000000000000000000000000000000000000100111000 +
b0000000000000000000000000000000000000000000000000000000101000000 .
12
b0000000000000000000000000000000000000000000000000000000100111100 4
#177
02
#178
b0000000000000000000000000000000000000000000000000000000101000000 $
b0000000000000000000000000000000000000000000000000000000100111100 +
b0000000000000000000000000000000000000000000000000000000101000100 .
12
b0000000000000000000000000000000000000000000000000000000101000000 4
#179
02
#180
b0000000000000000000000000000000000000000000000000000000101000100 $
b0000000000000000000000000000000000000000000000000000000101000000 +
b0000000000000000000000000000000000000000000000000000000101001000 .
12
b0000000000000000000000000000000000000000000000000000000101000100 4
#181
02
#182
b0000000000000000000000000000000000000000000000000000000101001000 $
b0000000000000000000000000000000000000000000000000000000101000100 +
b0000000000000000000000000000000000000000000000000000000101001100 .
12
b0000000000000000000000000000000000000000000000000000000101001000 4
#183
02
#184
b0000000000000000000000000000000000000000000000000000000101001100 $
b0000000000000000000000000000000000000000000000000000000101001000 +
b0000000000000000000000000000000000000000000000000000000101010000 .
12
b0000000000000000000000000000000000000000000000000000000101001100 4
#185
02
#186
b0000000000000000000000000000000000000000000000000000000101010000 $
b0000000000000000000000000000000000000000000000000000000101001100 +
b0000000000000000000000000000000000000000000000000000000101010100 .
12
b0000000000000000000000000000000000000000000000000000000101010000 4
#187
02
#188
b0000000000000000000000000000000000000000000000000000000101010100 $
b0000000000000000000000000000000000000000000000000000000101010000 +
b0000000000000000000000000000000000000000000000000000000101011000 .
12
b0000000000000000000000000000000000000000000000000000000101010100 4
#189
02
#190
b0000000000000000000000000000000000000000000000000000000101011000 $
b0000000000000000000000000000000000000000000000000000000101010100 +
b0000000000000000000000000000000000000000000000000000000101011100 .
12
b0000000000000000000000000000000000000000000000000000000101011000 4
#191
02
#192
b0000000000000000000000000000000000000000000000000000000101011100 $
b0000000000000000000000000000000000000000000000000000000101011000 +
b0000000000000000000000000000000000000000000000000000000101100000 .
12
b0000000000000000000000000000000000000000000000000000000101011100 4
#193
02
#194
b0000000000000000000000000000000000000000000000000000000101100000 $
b0000000000000000000000000000000000000000000000000000000101011100 +
b0000000000000000000000000000000000000000000000000000000101100100 .
12
b0000000000000000000000000000000000000000000000000000000101100000 4
#195
02
#196
b0000000000000000000000000000000000000000000000000000000101100100 $
b0000000000000000000000000000000000000000000000000000000101100000 +
b0000000000000000000000000000000000000000000000000000000101101000 .
12
b0000000000000000000000000000000000000000000000000000000101100100 4
#197
02
#198
b0000000000000000000000000000000000000000000000000000000101101000 $
b0000000000000000000000000000000000000000000000000000000101100100 +
b0000000000000000000000000000000000000000000000000000000101101100 .
12
b0000000000000000000000000000000000000000000000000000000101101000 4
